^D:\MY DOCUMENTS\VISUAL STUDIO 2017\PROJECTS\SNAKEATTEMPT\SNAKEATTEMPT\GAMEENGINE.CPP|D:\MY DOCUMENTS\VISUAL STUDIO 2017\PROJECTS\SNAKEATTEMPT\SNAKEATTEMPT\MAIN.CPP|D:\MY DOCUMENTS\VISUAL STUDIO 2017\PROJECTS\SNAKEATTEMPT\SNAKEATTEMPT\MAP.CPP|D:\MY DOCUMENTS\VISUAL STUDIO 2017\PROJECTS\SNAKEATTEMPT\SNAKEATTEMPT\RENDERER.CPP|D:\MY DOCUMENTS\VISUAL STUDIO 2017\PROJECTS\SNAKEATTEMPT\SNAKEATTEMPT\SNAKE.CPP|D:\MY DOCUMENTS\VISUAL STUDIO 2017\PROJECTS\SNAKEATTEMPT\SNAKEATTEMPT\WIN32CONSOLERENDERER.CPP
D:\MY DOCUMENTS\VISUAL STUDIO 2017\PROJECTS\SNAKEATTEMPT\SNAKEATTEMPT\DEBUG\VC141.PDB
D:\MY DOCUMENTS\VISUAL STUDIO 2017\PROJECTS\SNAKEATTEMPT\SNAKEATTEMPT\DEBUG\VC141.IDB
D:\MY DOCUMENTS\VISUAL STUDIO 2017\PROJECTS\SNAKEATTEMPT\SNAKEATTEMPT\DEBUG\WIN32CONSOLERENDERER.OBJ
D:\MY DOCUMENTS\VISUAL STUDIO 2017\PROJECTS\SNAKEATTEMPT\SNAKEATTEMPT\DEBUG\SNAKE.OBJ
D:\MY DOCUMENTS\VISUAL STUDIO 2017\PROJECTS\SNAKEATTEMPT\SNAKEATTEMPT\DEBUG\RENDERER.OBJ
D:\MY DOCUMENTS\VISUAL STUDIO 2017\PROJECTS\SNAKEATTEMPT\SNAKEATTEMPT\DEBUG\MAP.OBJ
D:\MY DOCUMENTS\VISUAL STUDIO 2017\PROJECTS\SNAKEATTEMPT\SNAKEATTEMPT\DEBUG\MAIN.OBJ
D:\MY DOCUMENTS\VISUAL STUDIO 2017\PROJECTS\SNAKEATTEMPT\SNAKEATTEMPT\DEBUG\GAMEENGINE.OBJ
^D:\MY DOCUMENTS\VISUAL STUDIO 2017\PROJECTS\SNAKEATTEMPT\SNAKEATTEMPT\RENDERER.CPP
D:\MY DOCUMENTS\VISUAL STUDIO 2017\PROJECTS\SNAKEATTEMPT\SNAKEATTEMPT\DEBUG\VC141.PDB
^D:\MY DOCUMENTS\VISUAL STUDIO 2017\PROJECTS\SNAKEATTEMPT\SNAKEATTEMPT\SNAKE.CPP
D:\MY DOCUMENTS\VISUAL STUDIO 2017\PROJECTS\SNAKEATTEMPT\SNAKEATTEMPT\DEBUG\VC141.PDB
^D:\MY DOCUMENTS\VISUAL STUDIO 2017\PROJECTS\SNAKEATTEMPT\SNAKEATTEMPT\GAMEENGINE.CPP|D:\MY DOCUMENTS\VISUAL STUDIO 2017\PROJECTS\SNAKEATTEMPT\SNAKEATTEMPT\MAIN.CPP|D:\MY DOCUMENTS\VISUAL STUDIO 2017\PROJECTS\SNAKEATTEMPT\SNAKEATTEMPT\MAP.CPP|D:\MY DOCUMENTS\VISUAL STUDIO 2017\PROJECTS\SNAKEATTEMPT\SNAKEATTEMPT\WIN32CONSOLERENDERER.CPP
D:\MY DOCUMENTS\VISUAL STUDIO 2017\PROJECTS\SNAKEATTEMPT\SNAKEATTEMPT\DEBUG\VC141.PDB
D:\MY DOCUMENTS\VISUAL STUDIO 2017\PROJECTS\SNAKEATTEMPT\SNAKEATTEMPT\DEBUG\VC141.IDB
D:\MY DOCUMENTS\VISUAL STUDIO 2017\PROJECTS\SNAKEATTEMPT\SNAKEATTEMPT\DEBUG\MAIN.OBJ
D:\MY DOCUMENTS\VISUAL STUDIO 2017\PROJECTS\SNAKEATTEMPT\SNAKEATTEMPT\DEBUG\WIN32CONSOLERENDERER.OBJ
D:\MY DOCUMENTS\VISUAL STUDIO 2017\PROJECTS\SNAKEATTEMPT\SNAKEATTEMPT\DEBUG\MAP.OBJ
D:\MY DOCUMENTS\VISUAL STUDIO 2017\PROJECTS\SNAKEATTEMPT\SNAKEATTEMPT\DEBUG\GAMEENGINE.OBJ
^D:\MY DOCUMENTS\VISUAL STUDIO 2017\PROJECTS\SNAKEATTEMPT\SNAKEATTEMPT\MAP.CPP
D:\MY DOCUMENTS\VISUAL STUDIO 2017\PROJECTS\SNAKEATTEMPT\SNAKEATTEMPT\DEBUG\VC141.PDB
^D:\MY DOCUMENTS\VISUAL STUDIO 2017\PROJECTS\SNAKEATTEMPT\SNAKEATTEMPT\WIN32CONSOLERENDERER.CPP
D:\MY DOCUMENTS\VISUAL STUDIO 2017\PROJECTS\SNAKEATTEMPT\SNAKEATTEMPT\DEBUG\VC141.PDB
^D:\MY DOCUMENTS\VISUAL STUDIO 2017\PROJECTS\SNAKEATTEMPT\SNAKEATTEMPT\MAIN.CPP
D:\MY DOCUMENTS\VISUAL STUDIO 2017\PROJECTS\SNAKEATTEMPT\SNAKEATTEMPT\DEBUG\VC141.PDB
^D:\MY DOCUMENTS\VISUAL STUDIO 2017\PROJECTS\SNAKEATTEMPT\SNAKEATTEMPT\GAMEENGINE.CPP
D:\MY DOCUMENTS\VISUAL STUDIO 2017\PROJECTS\SNAKEATTEMPT\SNAKEATTEMPT\DEBUG\VC141.PDB
D:\MY DOCUMENTS\VISUAL STUDIO 2017\PROJECTS\SNAKEATTEMPT\SNAKEATTEMPT\DEBUG\VC141.IDB
D:\MY DOCUMENTS\VISUAL STUDIO 2017\PROJECTS\SNAKEATTEMPT\SNAKEATTEMPT\DEBUG\GAMEENGINE.OBJ
