^D:\MY DOCUMENTS\VISUAL STUDIO 2017\PROJECTS\SNAKEATTEMPT\SNAKEATTEMPT\DEBUG\GAMEENGINE.OBJ|D:\MY DOCUMENTS\VISUAL STUDIO 2017\PROJECTS\SNAKEATTEMPT\SNAKEATTEMPT\DEBUG\MAIN.OBJ|D:\MY DOCUMENTS\VISUAL STUDIO 2017\PROJECTS\SNAKEATTEMPT\SNAKEATTEMPT\DEBUG\MAP.OBJ|D:\MY DOCUMENTS\VISUAL STUDIO 2017\PROJECTS\SNAKEATTEMPT\SNAKEATTEMPT\DEBUG\RENDERER.OBJ|D:\MY DOCUMENTS\VISUAL STUDIO 2017\PROJECTS\SNAKEATTEMPT\SNAKEATTEMPT\DEBUG\SNAKE.OBJ|D:\MY DOCUMENTS\VISUAL STUDIO 2017\PROJECTS\SNAKEATTEMPT\SNAKEATTEMPT\DEBUG\WIN32CONSOLERENDERER.OBJ
D:\MY DOCUMENTS\VISUAL STUDIO 2017\PROJECTS\SNAKEATTEMPT\DEBUG\SNAKEATTEMPT.EXE
D:\MY DOCUMENTS\VISUAL STUDIO 2017\PROJECTS\SNAKEATTEMPT\DEBUG\SNAKEATTEMPT.ILK
D:\MY DOCUMENTS\VISUAL STUDIO 2017\PROJECTS\SNAKEATTEMPT\DEBUG\SNAKEATTEMPT.PDB
